{
  "forge_marker": 1,
  "defaults": {
    "textures": {
      "all": "pneumaticlogistics:blocks/iron_pipe_texture"
    }
  },
  "variants": {
    "normal": {
      "model": "pneumaticlogistics:iron_pipe"
    },
    "inventory": {
      "model": "pneumaticlogistics:iron_pipe"
    }
  }
}